{
    "startDate": "16.01.2017",
    "endDate": "18.05.2017",
    "holidaysStart": "25.03.2017",
    "holidaysEnd": "23.04.2017",
    "type": "Spring",
    "modules": [
        {"name": "Networks",
        "code": "CMP-5037B",
        "credits": "20",
        "organiser": "Ben Milner",
        "description": 
            "This module examines networks and how they are designed and implemented to provide 
            reliable data transmission. A layered approach is taken in the study of networks 
            with emphasis given to the functionality of the traditional OSI 7 layer reference 
            model and the TCP/IP model. Week-by-week the module examines the functionality provided 
            by each layer and how this contributes to the overall reliable data transmission that 
            the network provides. Underlying theory behind each layer is studied and then examples 
            given as to how this is used in practice - for example within voice over IP (VoIP). 
            An emphasis is placed on practical issues associated with networking such as real-time 
            delivery of multimedia information and network security. The coursework tends to be 
            highly practical and underpins the theory learnt in lectures.",
        "assignments": [
            {"type": "Coursework",
            "name": "Design, implementation and evaluation of a VoIP communication system",
            "weighting": "30",
            "deadline": "06.03.2017 15:00",
            "setDate": "02.02.2017"
            }
            {"type": "Coursework",
            "name": "Monitoring Internet Performance.",
            "weighting": "30",
            "deadline": "11.05.2017 15:00",
            "setDate": "09.03.2017"
            }
            {"type": "Exam",
            "name": "Course test",
            "weighting": "40",
            "deadline": "07.06.2017 13:15",
            "startDateTime": "07.06.2017 11:15",
            "location": "CHALL 01.20"
            }
        ]}
        {"name": "Software Engineering 1",
        "code": "CMP-5012B",
        "credits": "20",
        "organiser": "Joost Noppen",
        "description": 
            "Software Engineering is one of the most essential skills for work in the software development industry. 
            Students will gain an understanding of the issues involved in designing and creating software systems 
            from an industry perspective. They will be taught state of the art in phased software development methodology, 
            with a special focus on the activities required to go from initial class model design to actual running software systems. 
            These activities are complemented with an introduction into software project management and development facilitation.",
        "assignments": [
            {"type": "Coursework",
            "name": " Stage 1: Design",
            "weighting": "30",
            "deadline": "23.03.2017 15:00",
            "setDate": "24.01.2017"
            }
            {"type": "Coursework",
            "name": "Stage 2: Implementation",
            "weighting": "70",
            "deadline": "17.05.2017 15:00",
            "setDate": "14.03.2017"
            }
        ]}
		{"name": "Data Structures and Algorithms",
        "code": "CMP-5014Y",
        "credits": "20",
        "organiser": "Geoffrey Mckeown",
        "description": 
            "This is a compulsory year long module for all computing students and provides the 
            necessary foundation in data and storage structures for all computing streams. 
            In addition, the module emphasises systematic algorithm design and discusses algorithm analysis. 
            At the same time, the module provides the student with the opportunity to reinforce and enhance 
            the programming skills developed at level 1",
        "assignments": [
            {"type": "Coursework",
            "name": "Coursework 1",
            "weighting": "15",
            "deadline": "08.12.2016 15:00",
            "setDate": "02.11.2016"
            }
            {"type": "Coursework",
            "name": "Module Assessment Exercises 2",
            "weighting": "35",
            "deadline": "15.03.2017 15:00",
            "setDate": "01.03.2017"
            }
            {"type": "Exam",
            "name": "Exam",
            "weighting": "50",
            "deadline": "05.06.2017 12:15",
            "startDateTime": "05.06.2017 10:15",
            "location": "CHALL 1.19"
            }
        ]}
		{"name": "Programming 2",
        "code": "CMP-5015Y",
        "credits": "20",
        "organiser": "Tony Bagnall",
        "description": 
            "This is a compulsory year long module for all computing students and is a continuation of CMP-4008Y. 
            It contains greater breadth and depth and provides students with the range of skills needed for many 
            of their subsequent modules. We recap Java and deepen your understanding of the language by teaching 
            topics such as nested classes, enumeration, generics, reflection, collections and threaded programming. 
            We then introduce C in order to improve your low level understanding of how programming works, before 
            moving on to C++ in semester 2. We conclude by introducing C# to highlight the similarities and 
            differences between languages.",
        "assignments": [
            {"type": "Coursework",
            "name": "Offline Movie DataBase (OMDB) in C",
            "weighting": "10",
            "deadline": "16.11.2016 15:00",
            "setDate": "19.10.2016"
            }
            {"type": "Coursework",
            "name": "Cheat in Java",
            "weighting": "25",
            "deadline": "01.02.2017 15:00",
            "setDate": "23.11.2016"
            }
			{"type": "Coursework",
            "name": "Offline Movie Database in C++",
            "weighting": "15",
            "deadline": "26.04.2017 15:00",
            "setDate": "15.03.2017"
            }
            {"type": "Exam",
            "name": "Exam",
            "weighting": "50",
            "deadline": "01.06.2017 18:15",
            "startDateTime": "01.06.2017 16:15",
            "location": "JSC 1.02"
            }
        ]}
    ]
}